OECD analysis
…
Responsible organisation(s):Ministry of Science, Technology and Productive Innovation (MINCYT;Ministerio de Ciencia, Tecnologa e Innovacin Productiva). and number of NAs values : 19. I decided not to apply any action on this column - I keep the observations as they are from the import.

Public access URL:NA. and number of NAs values : 118. I decided not to apply any action on this column - I keep the observations as they are from the import.

Is evaluated ?:FALSE. and number of NAs values : 0. I decided not to apply any action on this column - I keep the observations as they are from the import.

Evaluation URL:NA. and number of NAs values : 636. I decided not to apply any action on this column - I keep the observations as they are from the import.

Yearly budget range:Not applicable. and number of NAs values : 63.List of NAs for the column Yearly budget range:

## # A tibble: 63 x 3
##    `Policy initiative ID` `Yearly budget range` Country 
##    <chr>                  <chr>                 <chr>   
##  1 26500                  <NA>                  Bulgaria
##  2 24562                  <NA>                  Canada  
##  3 24661                  <NA>                  Canada  
##  4 24426                  <NA>                  China   
##  5 24251                  <NA>                  Colombia
##  6 24251                  <NA>                  Colombia
##  7 26448                  <NA>                  Colombia
##  8 26448                  <NA>                  Colombia
##  9 26484                  <NA>                  Cyprus  
## 10 26502                  <NA>                  Germany 
## # ... with 53 more rows
…
Within this point graph, we could see the increase of the interest in the IA policies and initiatives over the years, especially in 2019 where six non-member countries (Argentina, Brazil, Colombia, Costa Rica, Peru and Romania) adopted the Principles.

## # A tibble: 26 x 2
##    `Start date`     n
##           <dbl> <int>
##  1         2020    45
##  2         2019   272
##  3         2018   139
##  4         2017    46
##  5         2016    37
##  6         2015    17
##  7         2014    11
##  8         2013    10
##  9         2012     7
## 10         2011     6
## # ... with 16 more rows
…
3.3.2 The p-Value

Theorically, it is considered a linear model to be statistically signicant only when both these p-Values are less than the pre-determined statistical signficance level (<0.05). As shown in the Summary under the Coefficients the p-value Pr(>|t|) for v15 = 0.00858 and v18 = 0.00239 and the at the bottom p-value_ is equal to 0.0004709.

3.3.3 R-Squared

Theorically according to the result of the Multiple R-squared: 0.0232 and Adjusted R-squared: 0.02083 , it is considered that the variables of model do not have a high degree of linear correlation which might be translated that the model is a poor model or low goodness of fit. I consider that this result is basically related to the dataset size; in our case the dataset size is about 630 observations.

4 Model and Regression - Approach 2

4.1 Create a model

After running my first model, I observed there is not a tight relationship/correlation between the number of the policy initatives implementation over the years per country and the stakeholders (Target Groups) the themes. I decided to create a new data set by summarizing the Initiatives, Themes and Target Group by Year as shown as follows:

## # A tibble: 26 x 4
##       v4 v19_No v18_No v15_No
##    <int>  <int>  <int>  <int>
##  1  1980      1      1      1
##  2  1981      4      4      1
##  3  1984      7     19     13
##  4  1986      9      9      8
##  5  1990      1      2      2
##  6  1991      4      5      7
##  7  1992      2      7      1
##  8  1995      2      2      2
##  9  1997      3      5      1
## 10  2000     12     46     32
## # ... with 16 more rows
…
